Title: Buchausstellung in der Kindertagesstätte Immergrün

----

Location: Kindertagesstätte Immergrün

----

Date: 2017-11-17

----

Link:

----

Category: Kindergarteninterne Veranstaltung

----

Text:

----

Timestart:

----

Timeend:

----

Dateend: 2017-11-19

----

Showtime: true

----

Multipledays: true

----

Draft: 1
