Title: Buchausstellung im Kinderhaus Bernhard von Baden

----

Location: Kinderhaus Bernhard von Baden

----

Date: 2019-11-25

----

Link:

----

Category: Kindergarteninterne Veranstaltung

----

Text:

----

Timestart:

----

Timeend:

----

Dateend: 2019-11-29

----

Showtime: false

----

Multipledays: true
